{
  "input_sequences": [],
  "inputs": [
    {
      "name": "fatjet",
      "variables": [
        {
          "default": 707090.9432362772,
          "name": "pt",
          "offset": -707090.9432362772,
          "scale": 2.662548140263693e-06
        },
        {
          "default": -4.814665361468796e-05,
          "name": "eta",
          "offset": 4.814665361468798e-05,
          "scale": 1.205031849705245
        }
      ]
    },
    {
      "name": "subjet0",
      "variables": [
        {
          "default": 0.32330201839563316,
          "name": "DL1r_pu",
          "offset": -0.32330201839563316,
          "scale": 3.217521386473487
        },
        {
          "default": 0.2675788919343434,
          "name": "DL1r_pc",
          "offset": -0.2675788919343434,
          "scale": 5.086259693180374
        },
        {
          "default": 0.4091190896660295,
          "name": "DL1r_pb",
          "offset": -0.4091190896660295,
          "scale": 2.59278091887188
        }
      ]
    },
    {
      "name": "subjet1",
      "variables": [
        {
          "default": 0.33865829577910694,
          "name": "DL1r_pu",
          "offset": -0.33865829577910694,
          "scale": 3.27371471694821
        },
        {
          "default": 0.26948216300981603,
          "name": "DL1r_pc",
          "offset": -0.26948216300981603,
          "scale": 4.955581840702554
        },
        {
          "default": 0.3312757445816512,
          "name": "DL1r_pb",
          "offset": -0.3312757445816512,
          "scale": 2.730028937937932
        }
      ]
    },
    {
      "name": "subjet2",
      "variables": [
        {
          "default": 0.28857483297263425,
          "name": "DL1r_pu",
          "offset": -0.28857483297263425,
          "scale": 3.345249459118969
        },
        {
          "default": 0.20367782987699054,
          "name": "DL1r_pc",
          "offset": -0.20367782987699054,
          "scale": 5.044478024687667
        },
        {
          "default": 0.13667042584835087,
          "name": "DL1r_pb",
          "offset": -0.13667042584835087,
          "scale": 4.215438342058198
        }
      ]
    }
  ],
  "outputs": [
    {
      "labels": [
        "QCD",
        "Higgs",
        "Top"
      ],
      "name": "Xbb2022v4"
    }
  ]
}